{
  "properties": {
    "shortlink": {
      "type": "text"
    },
    "description": {
      "type": "text"
    },
    "url": {
      "type": "text",
      "index": false
    },
    "tags": {
      "type": "keyword"
    },
    "userId": {
      "type": "integer"
    }
  }
}
